{"Question": "《射雕英雄传》的主人公是谁？ ", "Answer": "郭靖是《射雕》的主角，是全书的书胆，也是金庸十分钟爱的一个人物，他是金老笔下唯一一个从出生前一直展现到老年的人物，金老不惜笔墨描写了他的一生，《射雕英雄传》主要描写的郭靖的少年和青年时代，展现了这位为国为民，侠之大者的民族脊梁的成长历程。"}
{"Question": "《射雕英雄传》郭靖的伴侣是谁 ", "Answer": "郭靖的伴侣是黄蓉，郭靖和黄蓉是金庸笔下的“正格”爱情，英雄美人式。 他们一个耿直木讷，一个聪慧乖巧，被认为是人间最佳配偶，最幸福美满的姻缘。"}
{"Question": "《射雕英雄传》的故事背景是哪个时期？", "Answer": "《射雕英雄传》以宋宁宗庆元五年（1199年）至成吉思汗逝世（1227年）这段历史为背景，反映了南宋抵抗金国与蒙古两大强敌的斗争，充满爱国的民族主义情愫。"}
{"Question": "《射雕英雄传》的主题是什么？", "Answer": "《射雕英雄传》主要讲的是郭啸天被宋朝官员所害，害他的主谋叫完颜洪烈，实际行凶者为段天德，他的妻子李萍被迫逃亡蒙古，在蒙古生下了我们的主角郭靖。 郭靖为人忠厚老实，在蒙古结识拖雷，铁木真、江南七怪等人，郭靖从小就跟江南七怪学习武功，他天资愚钝，学的你别人都慢，却肯下功夫，练功时非常刻苦，十八岁时离开蒙古，准备到中原为父报仇。"}
{"Question": "《射雕英雄传》的重要角色有哪些？ ", "Answer": "郭靖：郭啸天与李萍之子，生于蒙古，后南下中原并于张家口邂逅黄蓉与其成为情侣，一起闯荡江湖。 \n 除了郭靖和黄蓉，还有许多重要的角色在《射雕英雄传》中扮演着重要的角色。其中包括：\n 杨康：杨铁心与包惜弱之子，从小在金国赵王府长大，为人狡诈卑鄙，在赵王府时认金国六王爷赵王完颜洪烈作父。\n 穆念慈：杨铁心的养女，因比武招亲与其养父之亲生儿子杨康邂逅并堕入爱河。"}
{"Question": "《神雕侠侣》的主人公是谁？ ", "Answer": "主要人物是杨过——小说男主人公，是《射雕英雄传》中杨康与穆念慈（旧版是杨康与秦南琴）之子，俊朗聪明，但出身贫寒，导致性格自卑偏激，时常因为激愤，而冲动行事。"}
{"Question": "《神雕侠侣》中的“神雕”是什么？ ", "Answer": "神雕是金庸小说《神雕侠侣》中的角色，剑魔独孤求败的伙伴。 乃稀有的大型猛禽天生神力，身形甚巨，形貌丑陋之极，全身羽毛疏疏落落，钓嘴弯曲，羽毛呈黄黑，显得甚是肮脏，头顶生著个血红的大肉瘤，双腿奇粗，有时伸出羽翼，却又甚短，然亦威武气概。"}
{"Question": "《神雕侠侣》中杨过和小龙女是如何相遇的？？ ", "Answer": "郭靖带杨过去终南山拜师学艺，郭靖走后，杨过备受嘲讽和冷待，师叔欺负他，打他，正好遇到小龙女的老仆人，老仆人为救杨过受重伤，被小龙女一起救回古墓，在古墓里第一次见到小龙女的真面。"}
{"Question": "《神雕侠侣》中杨过的武功是什么？", "Answer": "杨过所学武功博杂，涉猎古墓派武功、独孤求败的剑法、蛤蟆功、打狗棒法、弹指神通、玉箫剑法及一些九阴真经，最终自创黯然销魂掌。"}
{"Question": "《神雕侠侣》中的“玉女心经”是谁所创？", "Answer": "玉女心经是由当年古墓派祖师林朝英独居古墓时创下。 林朝英撰述玉女心经，虽是要克制全真派武功，但因其对王重阳始终情意不减，所以撰述到最后一章玉女素心剑之时，林朝英幻想终有一日能与意中人并肩击敌，因之玉女心经的最后这一章的武术特别地有转喻之意。"}
{"Question": "《天龙八部》的故事背景是什么？", "Answer": "《天龙八部》以北宋的宋哲宗时代作为故事背景，展现了大宋、辽国、大理、西夏和吐蕃等国家之间的民族矛盾和江湖恩怨。 小说叙述了云南大理国的武林世家镇南王之子段誉，在其父段正淳命他学习段家绝学一阳指时，为了躲避习武来到无量山，却在机缘巧合下学会了逍遥派的北冥神功。"}
{"Question": "《天龙八部》的主要角色有哪些？", "Answer": "《天龙八部》中有许多主要角色，其中包括段誉、虚竹、乔峰、王语嫣、阿朱、阿紫等。每个角色都有独特的个性和故事线。"}
{"Question": "《天龙八部》乔峰的身世是怎样的？", "Answer": "《天龙八部》是金庸先生所著的一部武侠小说。男主角乔峰的身世颇为复杂。乔峰出生于辽国，他的父亲是辽国属珊军总教头萧远山。乔峰从小被寄养在少室山下乔三槐家中，并取名乔峰。他的养父养母被杀手杀死后，乔峰立志为养父养母报仇。乔峰武功高强，师从少林寺和丐帮。在江湖上，他与姑苏慕容复并称为“北乔峰南慕容”，是武林中一位叱咤风云的领袖人物。乔峰曾担任丐帮帮主，带领丐帮弟子辅翼北宋、抗击外敌。然而，在乔峰的身世被揭开后，他的生活发生了巨大变化。原来，乔峰的父亲萧远山是被人陷害后，被迫流落辽国。乔峰实际上是辽国公主与萧远山的儿子，是一个契丹人。在知道自己的身世后，乔峰辞去了丐帮帮主之位，并开始寻找自己的真实身份。"}
{"Question": "《天龙八部》中的八部是指什么？", "Answer": "天龙八部包括：天人（或稱天、提婆）、龙，夜叉，乾闥婆，阿修罗，迦楼罗，紧那罗，摩睺罗伽。 祂们是八类护法鬼神，随侍佛、菩萨、阿罗汉到世界各地说法，也会在人间护持修行人和寺院"}
{"Question": "《天龙八部》中的爱情线索有哪些？", "Answer": "《天龙八部》中有许多爱情线索。其中包括乔峰和阿朱、段誉和王语嫣、虚竹和西夏公主的爱情纠葛以及其他角色之间的爱恨情仇。爱情线索为小说增添了浪漫和感人的色彩。"}
{"Question": "《天龙八部》中哪个角色被认为是最具智慧和计谋的人物？", "Answer": "在《天龙八部》中，被认为是最具智慧和计谋的人物是虚竹。虚竹是一位出身于逍遥派的角色，他聪明机智，善于谋划和策略，经常能够在关键时刻提出独到的见解和解决方案。"}
{"Question": "《天龙八部》中的反派角色有哪些？", "Answer": "四大恶人是金庸先生《天龙八部》中的反派角色，他们是由“天下第一大恶人”段延庆以实力将其他三大恶人即叶二娘、岳老三、云中鹤收入麾下，后来又加入西夏一品堂，对外他们四人便被称为“四大恶人”。"}
{"Question": "《天龙八部》的结局如何？", "Answer": "《天龙八部》的结局是一个悲剧。乔峰错杀挚爱后，成为大辽南院大王，最后自尽身亡。段正淳和刀白凤为情自杀，段誉回到大理继承皇位，成为大理国的皇帝。虚竹成为西夏驸马。阿紫将眼睛还给游坦之后，抱着乔峰尸体跳下悬崖。慕容复因接连遭受打击而变成疯子，最后和他的侍女阿碧在一起。总的来说，《天龙八部》以乔峰、段誉和虚竹三人的传奇经历为主线，讲述了他们与不同女子之间的爱恨纠葛。故事背景是北宋年间，外族纷纷觊觎大宋国土。剧中主要人物的命运充满了悲情和曲折，展现了江湖恩怨的复杂和无常。"}
{"Question": "《天龙八部》中的主要情节有哪些？", "Answer": "乔峰、段誉和虚竹在风云际会中相识、相知、相异、相助，同时围绕在他们父辈之间的恩怨情仇以及他们与红颜知已的爱恨分离，形成了《天龙八部》的主要情节。"}